<svg width="40" height="30" viewBox="0 0 40 30" fill="none" xmlns="http://www.w3.org/2000/svg">
<path d="M38.6667 30H1.33333C0.979711 30 0.640573 29.8563 0.390524 29.6006C0.140476 29.3448 0 28.998 0 28.6363C0 28.2747 0.140476 27.9278 0.390524 27.6721C0.640573 27.4164 0.979711 27.2727 1.33333 27.2727H38.6667C39.0203 27.2727 39.3594 27.4164 39.6095 27.6721C39.8595 27.9278 40 28.2747 40 28.6363C40 28.998 39.8595 29.3448 39.6095 29.6006C39.3594 29.8563 39.0203 30 38.6667 30Z" fill="black"/>
<path d="M38.6667 16.3636H1.33333C0.979711 16.3636 0.640573 16.22 0.390524 15.9642C0.140476 15.7085 0 15.3616 0 15C0 14.6383 0.140476 14.2915 0.390524 14.0358C0.640573 13.78 0.979711 13.6364 1.33333 13.6364H38.6667C39.0203 13.6364 39.3594 13.78 39.6095 14.0358C39.8595 14.2915 40 14.6383 40 15C40 15.3616 39.8595 15.7085 39.6095 15.9642C39.3594 16.22 39.0203 16.3636 38.6667 16.3636Z" fill="black"/>
<path d="M38.6667 2.72727H1.33333C0.979711 2.72727 0.640573 2.5836 0.390524 2.32787C0.140476 2.07214 0 1.7253 0 1.36364C0 1.00198 0.140476 0.655132 0.390524 0.3994C0.640573 0.143669 0.979711 0 1.33333 0H38.6667C39.0203 0 39.3594 0.143669 39.6095 0.3994C39.8595 0.655132 40 1.00198 40 1.36364C40 1.7253 39.8595 2.07214 39.6095 2.32787C39.3594 2.5836 39.0203 2.72727 38.6667 2.72727Z" fill="black"/>
</svg>
